{
  "_comment1": "Any long-format command line argument ",
  "_comment2": "may be used in this JSON configuration file",

  "url": "stratum+tcps://stratum-ru.rplant.xyz:17055",
  
  "_comment3": "Backup/failover stratum used in case of connection problems",
  "url-backup": "stratum+tcps://stratum-na.rplant.xyz:17055",

  "user": "qgm2zGqD3TcvgVGvVX4XkqVW5gntQiEeUz.Arsa",
  "pass": "x",

  "algo": "yescryptr16",
  "threads": 4,

  "_comment4": "tune-full takes longer but should provide better hashrate",
  "tune-full": true,

  "_comment5": "You can specify different name/location for your tune config",
  "tune-config": "tune_config",

  "_comment6": "You can force miner to not tune. It tunes by default",
  "_comment7": "Or force it even if tune-config file already exists",
  "no-tune": false,
  "force-tune": false,

  "_comment8": "\"log\": \"filename\" can be used to create logfile of output",
  "benchmark": false,
  "stress-test": false,
  "quiet": false
}
